[    
    {
        "environment": "dev",
        "ade_server": "ade.dit.maap-project.org",
        "api_server": "sister-api.imgspec.org",
        "auth_server": "auth.dit.maap-project.org",
        "mas_server": "repo.dit.maap-project.org",
        "edsc_server": "ade.dit.maap-project.org:30052",
        "workspace_bucket": "maap-dit-workspace",
        "default_host": true
    }
]